<svg width="16" height="17" viewBox="0 0 16 17" fill="none" xmlns="http://www.w3.org/2000/svg">
<g id="chevron-lg-up">
<path id="icon" fill-rule="evenodd" clip-rule="evenodd" d="M2.21967 11.2802C1.92678 10.9873 1.92678 10.5124 2.21967 10.2195L7.4715 4.96772C7.76439 4.67482 8.23927 4.67482 8.53216 4.96772L13.784 10.2195C14.0769 10.5124 14.0769 10.9873 13.784 11.2802C13.4911 11.5731 13.0162 11.5731 12.7233 11.2802L8.00183 6.55871L3.28033 11.2802C2.98744 11.5731 2.51256 11.5731 2.21967 11.2802Z" fill="#59ABAF"/>
</g>
</svg>
